…
=============================================================================
FULL RESULTS with corrected detection metrics
=============================================================================

# A tibble: 85 × 19
   Species           Phylum Class Site_Code Latitude Longitude Markers n_biosamples_positive total_biosamples_at_…¹
   <chr>             <chr>  <chr> <chr>        <dbl>     <dbl> <chr>                   <int>                  <int>
 1 Watersipora subt… Bryoz… Gymn… Greece_7      35.3     25.1  COI                         3                      3
 2 Watersipora subt… Bryoz… Gymn… Greece_8      35.3     25.1  COI                         2                      3
 3 Neogobius melano… Chord… Acti… UK_1          55.2     -6.66 12S                         1                      3
 4 Neogobius melano… Chord… Acti… Norway_4      69.6     18.9  12S                         1                      3
 5 Watersipora subt… Bryoz… Gymn… Italy_2       40.0      9.69 COI                         1                      3
 6 Watersipora suba… Bryoz… Gymn… Spain_7       41.4      2.18 12S                         2                      3
 7 Watersipora suba… Bryoz… Gymn… Spain_2       41.4      2.21 12S                         1                      3
 8 Watersipora suba… Bryoz… Gymn… Spain_5       41.4      2.23 12S                         2                      3
 9 Pseudodiaptomus … Arthr… Hexa… Netherla…     52.1      4.26 18S                         2                      3
10 Hydroides elegans Annel… Poly… Italy_4       38.7     16.1  18S                         1                      3
11 Hydroides elegans Annel… Poly… Greece_4      40.8     25.9  18S                         3                      3
12 Bugula neritina   Bryoz… Gymn… Greece_4      40.8     25.9  COI                         3                      3
13 Hydroides elegans Annel… Poly… Italy_1       42.2     14.7  18S                         3                      3
14 Amathia verticil… Bryoz… Gymn… Italy_1       42.2     14.7  12S                         2                      3
15 Watersipora suba… Bryoz… Gymn… Portugal…     41.8     -8.87 12S                         2                      3
16 Amphibalanus imp… Arthr… Thec… Netherla…     53.4      6.83 COI                         2                      3
17 Hydroides elegans Annel… Poly… Italy_2       40.0      9.69 18S                         3                      3
18 Watersipora suba… Bryoz… Gymn… Portugal…     41.4     -8.76 12S                         3                      3
19 Watersipora suba… Bryoz… Gymn… Portugal…     37.9     -8.85 12S                         2                      3
20 Watersipora suba… Bryoz… Gymn… Portugal…     38.0     -8.87 12S                         3                      3
21 Amathia verticil… Bryoz… Gymn… Italy_4       38.7     16.1  12S                         3                      3
22 Watersipora suba… Bryoz… Gymn… Spain_4       43.7     -7.35 12S                         3                      3
23 Watersipora suba… Bryoz… Gymn… France_1      43.0      3.07 12S                         3                      3
24 Hydroides elegans Annel… Poly… Spain_7       41.4      2.18 18S                         2                      2
25 Hydroides elegans Annel… Poly… Spain_6       41.4      2.20 18S                         3                      3
26 Hydroides elegans Annel… Poly… Spain_2       41.4      2.21 18S                         1                      3
27 Austrominius mod… Arthr… Thec… Portugal…     41.4     -8.76 COI                         1                      3
28 Watersipora suba… Bryoz… Gymn… Spain_1       43.6     -5.70 12S                         2                      3
29 Amphibalanus imp… Arthr… Thec… Norway_1      58.0      7.48 COI                         1                      3
30 Schizoporella ja… Bryoz… Gymn… Norway_1      58.0      7.48 COI                         1                      3
# ℹ 55 more rows
# ℹ abbreviated name: ¹​total_biosamples_at_site
# ℹ 10 more variables: n_pcr_positive <dbl>, total_pcr_at_site <int>, theta <dbl>, reliability <chr>,
#   n_gbif_records <int>, nearest_distance_km <dbl>, nearest_year <int>, nearest_country <chr>,
#   same_country_records <dbl>, assessment <chr>
```
…
